%YAML 1.1
%TAG !u! tag:unity3d.com,2011:
--- !u!114 &11400000
MonoBehaviour:
  m_ObjectHideFlags: 0
  m_CorrespondingSourceObject: {fileID: 0}
  m_PrefabInstance: {fileID: 0}
  m_PrefabAsset: {fileID: 0}
  m_GameObject: {fileID: 0}
  m_Enabled: 1
  m_EditorHideFlags: 0
  m_Script: {fileID: 11500000, guid: 3df4e3a365a9c47468b05160b5e6d9bf, type: 3}
  m_Name: Rule8
  m_EditorClassIdentifier: 
  axiom: FX
  rules:
  - symbol: 88
    rule: '[-FX]+FX'
